{
  "project_info": {
    "project_number": "665624256153",
    "firebase_url": "https://project-37085275205282588.firebaseio.com",
    "project_id": "project-37085275205282588",
    "storage_bucket": "project-37085275205282588.appspot.com"
  },
  "client": [
    {
      "client_info": {
        "mobilesdk_app_id": "1:665624256153:android:e33dcc2e975e8811",
        "android_client_info": {
          "package_name": "com.felixsu.skyseeker"
        }
      },
      "oauth_client": [
        {
          "client_id": "665624256153-e1tscgl505fqpal80km45bpl3tel0mt2.apps.googleusercontent.com",
          "client_type": 1,
          "android_info": {
            "package_name": "com.felixsu.skyseeker",
            "certificate_hash": "D50FB22CF775BC72A3CACE58FC5E2A99EFBFED5E"
          }
        },
        {
          "client_id": "665624256153-82gcgcsqdfguuemu8omfeih8tdfbiljh.apps.googleusercontent.com",
          "client_type": 1,
          "android_info": {
            "package_name": "com.felixsu.skyseeker",
            "certificate_hash": "ED68F2D4DEBCBCB2AC7EBAA924A886A3C21D33C6"
          }
        },
        {
          "client_id": "665624256153-4tqpu9lpm5murrh038n7db10flsu47lo.apps.googleusercontent.com",
          "client_type": 3
        }
      ],
      "api_key": [
        {
          "current_key": "AIzaSyAQRKCQfuIQPQ2tNo7hdlOyip6FpzbkMZQ"
        }
      ],
      "services": {
        "analytics_service": {
          "status": 1
        },
        "appinvite_service": {
          "status": 2,
          "other_platform_oauth_client": [
            {
              "client_id": "665624256153-4tqpu9lpm5murrh038n7db10flsu47lo.apps.googleusercontent.com",
              "client_type": 3
            }
          ]
        },
        "ads_service": {
          "status": 2
        }
      }
    },
    {
      "client_info": {
        "mobilesdk_app_id": "1:665624256153:android:809d63d726cd92df",
        "android_client_info": {
          "package_name": "com.felixsu.mycgv"
        }
      },
      "oauth_client": [
        {
          "client_id": "665624256153-2q6t3l6htl32imic812qo5ps9au8ktks.apps.googleusercontent.com",
          "client_type": 1,
          "android_info": {
            "package_name": "com.felixsu.mycgv",
            "certificate_hash": "B5AE32CE796373FD9968C4A4AC3111B9F7790FBC"
          }
        },
        {
          "client_id": "665624256153-kd0dpigjkuitit0eghjmdu444qntg03j.apps.googleusercontent.com",
          "client_type": 1,
          "android_info": {
            "package_name": "com.felixsu.mycgv",
            "certificate_hash": "7937C699611952E58DFF49773291F36A99208AEF"
          }
        },
        {
          "client_id": "665624256153-03a6fdq8khi8btu9sldmorsob378dcke.apps.googleusercontent.com",
          "client_type": 1,
          "android_info": {
            "package_name": "com.felixsu.mycgv",
            "certificate_hash": "ED68F2D4DEBCBCB2AC7EBAA924A886A3C21D33C6"
          }
        },
        {
          "client_id": "665624256153-4tqpu9lpm5murrh038n7db10flsu47lo.apps.googleusercontent.com",
          "client_type": 3
        }
      ],
      "api_key": [
        {
          "current_key": "AIzaSyAQRKCQfuIQPQ2tNo7hdlOyip6FpzbkMZQ"
        }
      ],
      "services": {
        "analytics_service": {
          "status": 1
        },
        "appinvite_service": {
          "status": 2,
          "other_platform_oauth_client": [
            {
              "client_id": "665624256153-4tqpu9lpm5murrh038n7db10flsu47lo.apps.googleusercontent.com",
              "client_type": 3
            }
          ]
        },
        "ads_service": {
          "status": 2
        }
      }
    },
    {
      "client_info": {
        "mobilesdk_app_id": "1:665624256153:android:4a6860e820643684",
        "android_client_info": {
          "package_name": "com.felixsu.mycgv.debug"
        }
      },
      "oauth_client": [
        {
          "client_id": "665624256153-n6ruvspse3e9teaklg0mp32n228nv572.apps.googleusercontent.com",
          "client_type": 1,
          "android_info": {
            "package_name": "com.felixsu.mycgv.debug",
            "certificate_hash": "ED68F2D4DEBCBCB2AC7EBAA924A886A3C21D33C6"
          }
        },
        {
          "client_id": "665624256153-4tqpu9lpm5murrh038n7db10flsu47lo.apps.googleusercontent.com",
          "client_type": 3
        }
      ],
      "api_key": [
        {
          "current_key": "AIzaSyAQRKCQfuIQPQ2tNo7hdlOyip6FpzbkMZQ"
        }
      ],
      "services": {
        "analytics_service": {
          "status": 1
        },
        "appinvite_service": {
          "status": 2,
          "other_platform_oauth_client": [
            {
              "client_id": "665624256153-4tqpu9lpm5murrh038n7db10flsu47lo.apps.googleusercontent.com",
              "client_type": 3
            }
          ]
        },
        "ads_service": {
          "status": 2
        }
      }
    }
  ],
  "configuration_version": "1"
}